{
  "name" : "Allura",
  "description" : "",
  "thumb" : "images/image.png",
  "helpers": [
    "Themes::Allura::MainHelper"
  ],
  "hooks": {
    "on_active": ["allura_on_install_theme"],
    "on_inactive": ["allura_on_uninstall_theme"],
    "on_theme_settings": ["allura_settings"]
    //here all your hooks
  }
}
